"1","1","1","2014101823","AJERO , CHRISTIAN JOSE (PELEJO)","test@b-meg.ph","1","2021-10-12T17:16:01.000000Z","2021-10-12T17:24:49.000000Z"
"2","1","2","2015141802","AQUINO , JOSHUA RAPHAEL (REGISTRADO)","","0","2021-10-12T17:16:01.000000Z","2021-10-12T17:16:01.000000Z"
"3","1","2","2012105716","BARROZO , JARED AMERSON (VALDEABELLA)","","0","2021-10-12T17:16:01.000000Z","2021-10-12T17:16:01.000000Z"
"4","1","2","2014111325","CAMAONGAY , KIM DAVID (GAW)","","0","2021-10-12T17:16:01.000000Z","2021-10-12T17:16:01.000000Z"
"5","1","2","2014180070","CHUA , JAMES ADRIAN (SO)","","0","2021-10-12T17:16:01.000000Z","2021-10-12T17:16:01.000000Z"
"6","1","2","2015108330","CUNANAN , JAN CARLO (JUAN)","","0","2021-10-12T17:16:01.000000Z","2021-10-12T17:16:01.000000Z"
"7","1","2","2015107851","DE CHAVEZ , NIÑA MAE (ABALAHON)","","0","2021-10-12T17:16:01.000000Z","2021-10-12T17:16:01.000000Z"
"8","1","2","2015108473","DE GUZMAN , MARION RYLAN (QUIBA)","","0","2021-10-12T17:16:01.000000Z","2021-10-12T17:16:01.000000Z"
"9","1","2","2015112412","DE LA CRUZ , RAPHAEL CARLOS (DACANAY)","","0","2021-10-12T17:16:01.000000Z","2021-10-12T17:16:01.000000Z"
"10","1","2","2015103522","DIVINO , MAR JOSEPH (ROQUE)","","0","2021-10-12T17:16:01.000000Z","2021-10-12T17:16:01.000000Z"
"11","1","2","2014151471","ECHANES , GENESIS (ABARRA)","","0","2021-10-12T17:16:01.000000Z","2021-10-12T17:16:01.000000Z"
"12","1","2","2015112838","FLORENTINO , ALDRIAN CHRISTOPHER (MILLONDAGA)","","0","2021-10-12T17:16:01.000000Z","2021-10-12T17:16:01.000000Z"
"13","1","2","2016100361","FONTANILLA , TONI JEANNE (MANGUBAT)","","0","2021-10-12T17:16:01.000000Z","2021-10-12T17:16:01.000000Z"
"14","1","2","2013103169","GARCES , DANIEL EDWARD (ZAMORA)","","0","2021-10-12T17:16:01.000000Z","2021-10-12T17:16:01.000000Z"
"15","1","2","2009103924","GUMOGDA , GONZALO (VALERO)","","0","2021-10-12T17:16:01.000000Z","2021-10-12T17:16:01.000000Z"
"16","1","2","2015151411","HEQUIBAL , GUILLERMO (CUA)","","0","2021-10-12T17:16:01.000000Z","2021-10-12T17:16:01.000000Z"
"17","1","2","2015111520","LLORENTE , MARK JASON (DILAG)","","0","2021-10-12T17:16:01.000000Z","2021-10-12T17:16:01.000000Z"
"18","1","2","2014111682","LUCERO , KEVIN (ILUSTRE)","","0","2021-10-12T17:16:01.000000Z","2021-10-12T17:16:01.000000Z"
"19","1","2","2015113005","NEYRA , JOSE MIGUEL (MASALUNGA)","","0","2021-10-12T17:16:01.000000Z","2021-10-12T17:16:01.000000Z"
"20","1","2","2015107534","NICOLAS , SELA FRANCES (SANTIAGO)","","0","2021-10-12T17:16:01.000000Z","2021-10-12T17:16:01.000000Z"
"21","1","2","2015102505","ORDOÑEZ , JONN LOUIS (NOLASCO)","","0","2021-10-12T17:16:01.000000Z","2021-10-12T17:16:01.000000Z"
"22","1","2","2015108548","PALAD , JEAN PIERRE (BANAWA)","","0","2021-10-12T17:16:01.000000Z","2021-10-12T17:16:01.000000Z"
"23","1","2","2015111875","PILLEJERA , JOHN JOSEPH (BALINGIT)","","0","2021-10-12T17:16:01.000000Z","2021-10-12T17:16:01.000000Z"
"24","1","2","2015113028","RAMEL , KEITH ANDREW (SY)","","0","2021-10-12T17:16:01.000000Z","2021-10-12T17:16:01.000000Z"
"25","1","2","2016100705","RELOJ , JO-MARI (REMO)","","0","2021-10-12T17:16:01.000000Z","2021-10-12T17:16:01.000000Z"
"26","1","2","2015105641","RIBAY , SEAN GABRIEL (INTERINO)","","0","2021-10-12T17:16:01.000000Z","2021-10-12T17:16:01.000000Z"
"27","1","2","2016100217","ROMERO , LANZ TYRONE (DELA PEÑA)","","0","2021-10-12T17:16:01.000000Z","2021-10-12T17:16:01.000000Z"
"28","1","2","2015112702","ROSAS , JAN NICCOLO (BARRINUEVO)","","0","2021-10-12T17:16:01.000000Z","2021-10-12T17:16:01.000000Z"
"29","1","2","2015106177","SANTOS , JOSHUA ANDREI (MIRANDA)","","0","2021-10-12T17:16:01.000000Z","2021-10-12T17:16:01.000000Z"
"30","1","2","2015103424","SEBALLOS , ELIZA HANNAH MAY (REYES)","","0","2021-10-12T17:16:01.000000Z","2021-10-12T17:16:01.000000Z"
"31","1","2","2013108661","SERRANO , THALIA (TOLENTINO)","","0","2021-10-12T17:16:01.000000Z","2021-10-12T17:16:01.000000Z"
"32","1","2","2014108009","SOMOCIERRA , RONALD (OLIVEROS)","","0","2021-10-12T17:16:01.000000Z","2021-10-12T17:16:01.000000Z"
"33","1","2","2015112238","TAN , SHEENA MAE (GUILARAN)","","0","2021-10-12T17:16:01.000000Z","2021-10-12T17:16:01.000000Z"
"34","1","2","2012107194","TIANGCO , RHENZO (LAPITAN)","","0","2021-10-12T17:16:01.000000Z","2021-10-12T17:16:01.000000Z"
